{
  "firestore": {
    "rules": "firestore.rules",
    "indexes": "firestore.indexes.json"
  },
  "hosting": [
    {
      "target": "alexalink",
      "public": "dist/alexalink",
      "ignore": [
        "firebase.json",
        "**/.*",
        "**/node_modules/**"
      ],
      "headers": [
        {
          "source": "/.well-known/apple-app-site-association",
          "headers": [
            {
              "key": "Content-Type",
              "value": "application/json"
            }
          ]
        },
        {
          "source": "/apple-app-site-association",
          "headers": [
            {
              "key": "Content-Type",
              "value": "application/json"
            }
          ]
        }
      ]
    },
    {
      "target": "ghomelink",
      "public": "dist/ghomelink",
      "ignore": [
        "firebase.json",
        "**/.*",
        "**/node_modules/**"
      ],
      "redirects": [ {
        "source": "/oauth2/authorise",
        "destination": "/",
        "type": 301
      } ],
      "rewrites": [ {
        "source": "/oauth2/token",
        "function": "oauth2-token"
      },
      {
        "source": "/v1/api/authcode",
        "function": "oauth2-apiauthcode"
      },
      {
        "source": "/v1/api/firestore",
        "function": "apifirestore"
      },
      {
        "source": "/v1/api/podcast",
        "function": "apinewpodcast"
      }
     ]
    },
    {
      "target": "test-podcastone",
      "public": "dist/test-podcastone",
      "ignore": [
        "firebase.json",
        "**/.*",
        "**/node_modules/**"
      ],
      "headers": [
        {
          "source": "/.well-known/apple-app-site-association",
          "headers": [
            {
              "key": "Content-Type",
              "value": "application/json"
            }
          ]
        },
        {
          "source": "/apple-app-site-association",
          "headers": [
            {
              "key": "Content-Type",
              "value": "application/json"
            }
          ]
        }
      ]
    }
  ]
}

