{
    "graphql": {
      "endpoint": "https://api.podcastoneaustralia.com.au"
    },
    "bucket": "test-podcastone.appspot.com",
    "sendgrid": {
      "emailto": "testsca50@gmail.com",
      "newpodcast": "pc1-newshow-notify@sca.com.au",
      "key": "testkey"
    },
    "smapi": {
      "refreshToken": "Atzr|IwEBIFfVC7j6xO_I3zwLYWmNKs6OnYovSXRr3VbnqkhmHgmLIFaA9C9lmap8WIn-YXWKKpnezbgmF6bGKxZ-6XnlCfY-U2Th8oIIuluvflNTuL7xAcLHZmth9lqdaXMmGimI5ujjtlWbZPHZHn0QJUfi6DePaEIFzNJaZkvZS00FilBScuS-LNgXrAWrQTs7oZMmS-Uxb4ueYVTOsOp3k_KSHYup08UEu_pf-uYNRXS7KHv8a8TD0GlrtCUP9I-MykSdCpPe1vVSrRCzGze1H-TGYlK69CfaLJa9XZUMAJhsT3p9j1tF6g76jIrckHfBTWIZ-Gj7yzrzpajTYpc3uYrDAjPs9MvVCEAeMVnDSgVXKHhtYArDvGU49x9ccbcXeCLtqag9g5COeOHbTZ_QtsjBTsjAyHVD0BpuuwmnH2aF0n7UgtNutZvuuaiEQVrne2vkwIqMieEHy87X6PNoO6N30kUFwudBoGh52fSWcqfeKJGwc-twAXwHHe07RkQys4CAfSbD-8nyn6RaRo_VDEsOIWcvQFL1f_C6YsRPFyh98WPjHnk8-6e0GErRLfzpak_JLqnAaUiQEze6dwqIZXyw7t2YJfgRGy74e0fYZnfW7ZPCVPFJr1v90ZoE-VzfXhGUuE45zI_fCIrwyEf9ytLEcdvuKs8x_CtJ9u0THHEADMALCw",
      "clientId": "amzn1.application-oa2-client.33533a63833a4b3182d7a31368c1ecd6",
      "clientSecret": "82ad60827ce783d85853115a79ef62aca2cfe935198ed2a33a025a5c7473ffcf"
    },
    "alexa": {
      "skillid" : "amzn1.ask.skill.5af8ef25-f877-4c50-b65a-920c6ba4f257"
    },
  "squidex": {
    "secretkey":  "xxxxxxxxxxxxxx333333333333333333333333csdrf@@@@@@@@@@@@@@@@@@"
  }
}
