[
  {
    "id": "f302e64c-2b0f-484a-99ee-b8c000d8a846",
    "data": [
      {
        "text": "nevermind",
        "userDefined": false
      }
    ],
    "isTemplate": false,
    "count": 0,
    "updated": 0
  },
  {
    "id": "cce8d11a-39f6-4fbe-a381-a8d5c3615eb4",
    "data": [
      {
        "text": "adios",
        "userDefined": false
      }
    ],
    "isTemplate": false,
    "count": 0,
    "updated": 0
  },
  {
    "id": "d1fe340b-0531-4f3e-be0c-76daf8d0e532",
    "data": [
      {
        "text": "exit",
        "userDefined": false
      }
    ],
    "isTemplate": false,
    "count": 0,
    "updated": 0
  },
  {
    "id": "78ee94b2-6259-46e5-883b-49b155c7374e",
    "data": [
      {
        "text": "cancel",
        "userDefined": false
      }
    ],
    "isTemplate": false,
    "count": 1,
    "updated": 0
  },
  {
    "id": "51cfba69-3686-4fe6-8837-5e2c313a26a8",
    "data": [
      {
        "text": "quit playing",
        "userDefined": false
      }
    ],
    "isTemplate": false,
    "count": 0,
    "updated": 0
  },
  {
    "id": "30550a89-4f57-4956-bef9-11d17492b4f6",
    "data": [
      {
        "text": "stop",
        "userDefined": false
      }
    ],
    "isTemplate": false,
    "count": 4,
    "updated": 0
  },
  {
    "id": "c1fc0a2a-4b48-4ec9-97c0-c5938d72ec30",
    "data": [
      {
        "text": "kill",
        "userDefined": false
      }
    ],
    "isTemplate": false,
    "count": 0,
    "updated": 0
  },
  {
    "id": "82409881-ba77-4eaa-aeb7-64e939a72161",
    "data": [
      {
        "text": "I have to go",
        "userDefined": false
      }
    ],
    "isTemplate": false,
    "count": 0,
    "updated": 0
  },
  {
    "id": "a431201e-d935-4035-b684-5c6e4c9be7ec",
    "data": [
      {
        "text": "end game",
        "userDefined": false
      }
    ],
    "isTemplate": false,
    "count": 0,
    "updated": 0
  },
  {
    "id": "4525a78f-14a8-4981-8ba3-47a6bebc2732",
    "data": [
      {
        "text": "I quit",
        "userDefined": false
      }
    ],
    "isTemplate": false,
    "count": 0,
    "updated": 0
  },
  {
    "id": "7bb7f475-b6ae-4191-89ed-0f28716d3ecd",
    "data": [
      {
        "text": "game over",
        "userDefined": false
      }
    ],
    "isTemplate": false,
    "count": 0,
    "updated": 0
  },
  {
    "id": "57907977-dbde-4951-a2e7-f0804e47b23b",
    "data": [
      {
        "text": "bye",
        "userDefined": false
      }
    ],
    "isTemplate": false,
    "count": 0,
    "updated": 0
  },
  {
    "id": "67020715-12da-4bd4-8798-b90f0233d500",
    "data": [
      {
        "text": "never mind",
        "userDefined": false
      }
    ],
    "isTemplate": false,
    "count": 0,
    "updated": 0
  },
  {
    "id": "1ad1ecaf-b286-4d15-b70f-8e19f9fe0486",
    "data": [
      {
        "text": "end",
        "userDefined": false
      }
    ],
    "isTemplate": false,
    "count": 0,
    "updated": 0
  },
  {
    "id": "6b5621f9-d87d-47f6-9f38-8dc123f7326a",
    "data": [
      {
        "text": "i don\u0027t want to play anymore",
        "userDefined": false
      }
    ],
    "isTemplate": false,
    "count": 1,
    "updated": 0
  },
  {
    "id": "87db2ee9-6ae2-4780-9d82-adc9245821de",
    "data": [
      {
        "text": "go away",
        "userDefined": false
      }
    ],
    "isTemplate": false,
    "count": 0,
    "updated": 0
  },
  {
    "id": "b6aa748e-6d0a-4b8e-b463-ada61969e9f6",
    "data": [
      {
        "text": "quit",
        "userDefined": false
      }
    ],
    "isTemplate": false,
    "count": 0,
    "updated": 0
  },
  {
    "id": "6e119bc5-71f3-4b88-93f2-4c8284b2ea0e",
    "data": [
      {
        "text": "stop it",
        "userDefined": false
      }
    ],
    "isTemplate": false,
    "count": 0,
    "updated": 0
  },
  {
    "id": "c63bd0ed-34d9-467a-b1a2-1b089a2a0a86",
    "data": [
      {
        "text": "shut up",
        "userDefined": false
      }
    ],
    "isTemplate": false,
    "count": 0,
    "updated": 0
  },
  {
    "id": "d2a85884-1c5e-4e00-b348-2ade5bdaf930",
    "data": [
      {
        "text": "close",
        "userDefined": false
      }
    ],
    "isTemplate": false,
    "count": 0,
    "updated": 0
  },
  {
    "id": "4576f253-8b90-4d18-b3ee-3ea4f9da8302",
    "data": [
      {
        "text": "thanks",
        "userDefined": false
      }
    ],
    "isTemplate": false,
    "count": 0,
    "updated": 0
  },
  {
    "id": "82d798f6-14ac-445d-aad5-8dedb679675a",
    "data": [
      {
        "text": "stop this game",
        "userDefined": false
      }
    ],
    "isTemplate": false,
    "count": 0,
    "updated": 0
  },
  {
    "id": "b29069b1-8ff1-4ecf-9c9d-85bb74edfa44",
    "data": [
      {
        "text": "forget that",
        "userDefined": false
      }
    ],
    "isTemplate": false,
    "count": 0,
    "updated": 0
  },
  {
    "id": "d216e6cd-0c0a-48b6-9aa0-6f6df77d54c3",
    "data": [
      {
        "text": "I\u0027m done",
        "userDefined": false
      }
    ],
    "isTemplate": false,
    "count": 1,
    "updated": 0
  },
  {
    "id": "f2549637-efe7-44cd-9956-f91a8f558320",
    "data": [
      {
        "text": "do nothing",
        "userDefined": false
      }
    ],
    "isTemplate": false,
    "count": 0,
    "updated": 0
  },
  {
    "id": "0bd847b3-849c-4ba0-a8f1-94df2a1fb77a",
    "data": [
      {
        "text": "just forget about it",
        "userDefined": false
      }
    ],
    "isTemplate": false,
    "count": 1,
    "updated": 0
  },
  {
    "id": "065c5f12-4bff-46c4-92e5-95f05753a8f9",
    "data": [
      {
        "text": "dismiss",
        "userDefined": false
      }
    ],
    "isTemplate": false,
    "count": 0,
    "updated": 0
  },
  {
    "id": "318c2239-7ffb-475d-a3d8-2e9cf1dd2602",
    "data": [
      {
        "text": "skip",
        "userDefined": false
      }
    ],
    "isTemplate": false,
    "count": 2,
    "updated": 0
  },
  {
    "id": "6746408e-ab6f-4517-8572-ba741a81491a",
    "data": [
      {
        "text": "end playing",
        "userDefined": false
      }
    ],
    "isTemplate": false,
    "count": 1,
    "updated": 0
  },
  {
    "id": "c5de2781-1b2d-4d6c-a595-35f31bdd0827",
    "data": [
      {
        "text": "Let\u0027s talk later",
        "userDefined": false
      }
    ],
    "isTemplate": false,
    "count": 0,
    "updated": 0
  },
  {
    "id": "0f8a1a0f-a4e7-486d-ad2e-45cd98b3c2e0",
    "data": [
      {
        "text": "i\u0027m done now",
        "userDefined": false
      }
    ],
    "isTemplate": false,
    "count": 0,
    "updated": 0
  },
  {
    "id": "64f30125-3f16-4daf-a85a-a894e37942af",
    "data": [
      {
        "text": "cancel that",
        "userDefined": false
      }
    ],
    "isTemplate": false,
    "count": 5,
    "updated": 0
  },
  {
    "id": "8b870aa3-c199-4c06-836f-720965abe7e8",
    "data": [
      {
        "text": "finish",
        "userDefined": false
      }
    ],
    "isTemplate": false,
    "count": 0,
    "updated": 0
  },
  {
    "id": "da2daec5-fc7d-4922-b950-31e087510668",
    "data": [
      {
        "text": "let stop here",
        "userDefined": false
      }
    ],
    "isTemplate": false,
    "count": 0,
    "updated": 0
  },
  {
    "id": "b603ee74-45b7-4947-8f5c-7492ecfaec6d",
    "data": [
      {
        "text": "terminate",
        "userDefined": false
      }
    ],
    "isTemplate": false,
    "count": 0,
    "updated": 0
  },
  {
    "id": "8c6ba3d3-0ed4-447e-9d96-248e3ba10b1b",
    "data": [
      {
        "text": "good bye",
        "userDefined": false
      }
    ],
    "isTemplate": false,
    "count": 0,
    "updated": 0
  },
  {
    "id": "c167ce08-be4b-42bf-89b3-a050cf88977f",
    "data": [
      {
        "text": "let\u0027s stop",
        "userDefined": false
      }
    ],
    "isTemplate": false,
    "count": 0,
    "updated": 0
  },
  {
    "id": "665f878d-de00-4a8a-9d89-85845821a202",
    "data": [
      {
        "text": "stop playing",
        "userDefined": false
      }
    ],
    "isTemplate": false,
    "count": 0,
    "updated": 0
  },
  {
    "id": "1b8f4565-528c-4ab9-beea-7ab40f505b7e",
    "data": [
      {
        "text": "stop game",
        "userDefined": false
      }
    ],
    "isTemplate": false,
    "count": 0,
    "updated": 0
  },
  {
    "id": "e7215d49-d7c8-4598-96b3-d0ff243bc9a0",
    "data": [
      {
        "text": "turn off",
        "userDefined": false
      }
    ],
    "isTemplate": false,
    "count": 0,
    "updated": 0
  }
]