{
  "id": "25bcfe4d-94d4-4a4d-bd59-acb7ed9b230f",
  "name": "Default Welcome Intent",
  "auto": true,
  "contexts": [],
  "responses": [
    {
      "resetContexts": true,
      "action": "input.welcome",
      "affectedContexts": [],
      "parameters": [],
      "messages": [
        {
          "type": "simple_response",
          "platform": "google",
          "lang": "en",
          "condition": "",
          "textToSpeech": "Welcome to Podcast One Australia, Australia\u0027s premium podcast network. If you know which podcast you would like to listen to, simply say it\u0027s name, otherwise say \u0027recommend\u0027 to hear some recommendations.",
          "ssml": "",
          "displayText": "Welcome to Podcast One Australia, Australia\u0027s premium podcast network."
        }
      ],
      "defaultResponsePlatforms": {},
      "speech": []
    }
  ],
  "priority": 500000,
  "webhookUsed": true,
  "webhookForSlotFilling": false,
  "fallbackIntent": false,
  "events": [
    {
      "name": "GOOGLE_ASSISTANT_WELCOME"
    },
    {
      "name": "WELCOME"
    }
  ],
  "conditionalResponses": [],
  "condition": "",
  "conditionalFollowupEvents": []
}