[
  {
    "id": "b38dd3f5-478e-4a9e-ad47-13f1800e8085",
    "data": [
      {
        "text": "next",
        "userDefined": false
      }
    ],
    "isTemplate": false,
    "count": 0,
    "updated": 0
  },
  {
    "id": "7da0cc88-e18b-4fad-a02a-aaa071dec5a0",
    "data": [
      {
        "text": "skip podcast",
        "userDefined": false
      }
    ],
    "isTemplate": false,
    "count": 0,
    "updated": 0
  },
  {
    "id": "a6c92ef8-73f8-414d-8d80-1a9ce5c8ef14",
    "data": [
      {
        "text": "skip episode",
        "userDefined": false
      }
    ],
    "isTemplate": false,
    "count": 0,
    "updated": 0
  },
  {
    "id": "844548cb-2c5a-4f49-8154-e94805b23c72",
    "data": [
      {
        "text": "next podcast",
        "userDefined": false
      }
    ],
    "isTemplate": false,
    "count": 0,
    "updated": 0
  },
  {
    "id": "eb1af026-9360-493c-94df-1978dca031c0",
    "data": [
      {
        "text": "next episode",
        "userDefined": false
      }
    ],
    "isTemplate": false,
    "count": 0,
    "updated": 0
  }
]