{
  "id": "d07dfcec-e261-4cfc-a8f9-94c79073c8d6",
  "name": "Play podcast",
  "auto": true,
  "contexts": [],
  "responses": [
    {
      "resetContexts": false,
      "affectedContexts": [],
      "parameters": [
        {
          "id": "69b41c3f-30ec-4f2a-ae98-8835759695b6",
          "required": true,
          "dataType": "@podcast",
          "name": "podcast",
          "value": "$podcast",
          "prompts": [
            {
              "lang": "en",
              "value": "what podcast would you like to play"
            },
            {
              "lang": "en",
              "value": "which podcast"
            }
          ],
          "promptMessages": [],
          "noMatchPromptMessages": [],
          "noInputPromptMessages": [],
          "outputDialogContexts": [],
          "isList": false
        }
      ],
      "messages": [
        {
          "type": 0,
          "lang": "en",
          "condition": "",
          "speech": "Couldn\u0027t play podcast. Please try again later."
        }
      ],
      "defaultResponsePlatforms": {},
      "speech": []
    }
  ],
  "priority": 500000,
  "webhookUsed": true,
  "webhookForSlotFilling": false,
  "fallbackIntent": false,
  "events": [],
  "conditionalResponses": [],
  "condition": "",
  "conditionalFollowupEvents": []
}