[
  {
    "id": "0233035f-3e5d-4d1b-b84c-3babea074009",
    "data": [
      {
        "text": "podcast",
        "alias": "podcast",
        "meta": "@podcast",
        "userDefined": true
      }
    ],
    "isTemplate": false,
    "count": 0,
    "updated": 0
  },
  {
    "id": "54a41f4e-b209-484d-bf55-8a576aff1572",
    "data": [
      {
        "text": "play ",
        "userDefined": false
      },
      {
        "text": "podcast",
        "alias": "podcast",
        "meta": "@podcast",
        "userDefined": true
      }
    ],
    "isTemplate": false,
    "count": 0,
    "updated": 0
  }
]